2:3.597139835357666
3:4.160486221313477
4:9.004124164581299
5:4.720921039581299
6:10.121788024902344
7:15.860538959503174
8:21.908896923065186
9:28.270469903945923
10:35.015336990356445
11:6.739418268203735
