,name,authority,identity,counts
0,"(1,3-Isobenzofurandione,3a,4,7,7a-tetrahydro-4,5-dimethyl-7-(2-methyl-1-propenyl)- )",CAS,7672-77-7,1
1,"(3,4-Epoxycyclohexyl)ethyltrimethoxysilane",CAS,3388-04-3,40
2,"(Chloromethyl)oxirane,homopolymer",CAS,61788-97-4,4
3,"1,1'-(methylenedi-p-phenylene)bismaleimide",CAS,13676-54-5,1112
4,"1,2,4-Trimethylbenzene",CAS,95-63-6,253
5,"1,3,5-Triazine",CAS,290-87-9,122
6,"1,3,5-Triazine-2,4,6(1H,3H,5H)-trione, compd. with 6-(2-(2-methyl-1H-imidazol-1-yl)ethyl)-1,3,5-triazine-2,4-diamine (1:1)",CAS,68490-66-4,145
7,"1,3,5-Triazine-2,4,6-triamine, polymer with formaldehyde and phenol",CAS,25917-04-8,1913
8,"1,3,5-Triazine-2,4-diamine, 6-[2-(2-methyl-1H-imidazol-1-yl)ethyl]",CAS,38668-46-1,651
9,"1,3-Benzenedicarboxylic acid, polymer with 1,4-benzenedicarboxylic acid, 1,4-butanediol and hexanedioic acid",CAS,66027-02-9,62
10,"1,3-Bis(3-glycidoxypropyl)tetramethyldisiloxane",CAS,126-80-7,5
11,"1,3-Butadiene, homopolymer, epoxidized, cyclized",CAS,68441-49-6,569
12,"1,4-Butanediol dimethacrylate",CAS,2082-81-7,8
13,"1,6-Bis(2,3-epoxypropoxy) naphthalene",CAS,27610-48-6,450
14,"1,6-Hexanediol diacrylate",CAS,13048-33-4,11
15,"1,8-diazabicyclo[5.4.0]undec-7-ene",CAS,6674-22-2,14
16,1-Methoxy-2-propyl acetate,CAS,108-65-6,1
17,1-cyanoguanidine,CAS,461-58-5,241
18,"2,2'-[methylenebis(o-phenyleneoxymethylene)]bisoxirane",CAS,54208-63-8,14
19,"2,2'-[methylenebis(phenyleneoxymethylene)]bisoxirane",CAS,39817-09-9,6
20,"2,2,4-trimethyl-1,3-pentanediol-1-monoisobutyrate",CAS,25265-77-4,249
21,"2,2-Bis-(4-cyanatophenyl)propane",CAS,1156-51-0,14
22,"2,5-Di-tert-butyl-1,4-phenylenebis(oxymethyloxirane)",CAS,64777-22-6,193
23,2-(2-butoxyethoxy)ethanol,CAS,112-34-5,16
24,2-(chloromethyl)oxirane 4-[2-(4-hydroxyphenyl)propan-2-yl]phenol prop-2-enoic acid,CAS,90598-46-2,2
25,2-Methyl-4'-(methylthio)-2-morpholino propiophenone,CAS,71868-10-5,21
26,"2-Oxiranemethanamine,N-[2-methyl-4-(2-oxiranylmethoxy)phenyl]-N-(2-oxiranylmethyl)-",CAS,110656-67-2,88
27,"2-Propenenitrile, polymer with 1,3-butadiene, carboxy-terminated, polymers with bisphenol A and epichlorohydrin",CAS,68610-41-3,78
28,"2-Propenoic acid, butyl ester, polymer with ethyl 2-propenoate",CAS,26353-42-4,5
29,2-Undecylimidazole,CAS,16731-68-3,5
30,"2-[[4-[2-[4-[1,1-bis[4-(oxiran-2-ylmethoxy)phenyl]ethyl]phenyl]propan-2-yl]phenoxy]methyl]oxirane",CAS,115254-47-2,2
31,2-ethylhexyl glycidyl ether,CAS,2461-15-6,188
32,2-propenoic acid,CAS,79-10-7,3
33,"2-propenoic acid, (1-methylethylidene)bis(4,1-phenyleneoxy-2,1-ethanediyl) ester",CAS,24447-78-7,569
34,"3,16-Dioxa-8,9,10,11-tetrathia-4,15-disilaoctadecane, 4,4,15,15-tetraethoxy-",CAS,40372-72-3,4
35,"3,3'-(4-Methylbenzene-1,3-diyl)bis(1,1-dimethylurea)",CAS,17526-94-2,26
36,"3,4-Epoxycyclohexanecarboxylic acid (3,4-epoxycyclohexylmethyl) ester",CAS,2386-87-0,9
37,"3,5,3',5'-Tetrabromobisphenol A, epichlorohydrin polymer",CAS,40039-93-8,60
38,3-(trimethoxysilyl)propyl methacrylate,CAS,2530-85-0,570
39,3-Aminophenyl sulfone,CAS,599-61-1,20
40,3-Methoxy-3-methylbutyl acetate,CAS,103429-90-9,118
41,3-methoxy-3-methyl-1-butyl acetate,CAS,103429-90-9,378
42,"4,4'-(1-methylethylidene)bisphenol, (chloromethyl)oxirane, 4,4'-(1-methylethlidene)bis(2,6-dibromophenol polymer)",CAS,26265-08-7,3
43,"4,4'-Diaminodiphenylsulfone",CAS,80-08-0,7
44,"4,4'-Dihydroxydiphenyl",CAS,92-88-6,855
45,"4,4'-Methylenebis(2-ethylbenzenamine)",CAS,19900-65-3,236
46,"4,4'-carbonyldiphthalic acid",CAS,2479-49-4,9
47,4-Methyl-2-phenyl-1H-imidazole,CAS,827-43-0,6
48,"6-methyl-2,4-bis(methylthio)phenylene-1,3-diamine",CAS,106264-79-3,80
49,Acrylic acid ester copolymer,CAS,78506-70-4,74
50,Acrylic polymers,CAS,9065-11-6,3
51,Acrylonitrile-methyl-methacrylate-vinylidene chloride copolymer,CAS,25036-25-3,174
52,"Acrylonitrile/Butadiene copolymer, carboxyl terminated (26/74)",CAS,68891-46-3,1347
53,"Alkanes, C14-16",CAS,90622-46-1,62
54,Aluminum Hydroxide,CAS,21645-51-2,1019
55,Aluminum Oxides (Al2O3),CAS,1344-28-1,1019
56,Aluminum fluoride,CAS,7784-18-1,13
57,Aluminum hydroxide oxide,CAS,24623-77-6,36
58,Aluminum oxide,CAS,1302-74-5,6
59,Aluminum silicate,CAS,12141-46-7,4
60,"Aluminum, metal",CAS,7429-90-5,3228
61,Anthracene,CAS,120-12-7,63
62,Antimony(III) oxide,CAS,1309-64-4,303
63,Antimony(V) oxide,CAS,1314-60-9,9
64,"Antimony, metal",CAS,7440-36-0,1331
65,"Arsenic, metal",CAS,7440-38-2,1590
66,BT Resin (CAS# 13676-54-5/25722-66-1) [Brominated Compound],CAS,,42
67,Barium,CAS,7440-39-3,290
68,Barium oxide,CAS,1304-28-5,103
69,Barium silicate,CAS,13255-26-0,8
70,Barium sulfate,CAS,7727-43-7,2515
71,Barium titanate,CAS,12047-27-7,463
72,Bentonite,CAS,1302-78-9,6
73,"Benzaldehyde, 2-hydroxy-, polymer with (chloromethyl)oxirane and phenol",CAS,120206-26-0,8
74,"Benzenesulfonic acid, 4-((3-((2-hydroxy-3-(((4-methoxyphenyl)amino)carbonyl)-1-naphthalenyl)azo)-4-methylbenzoyl)amino)-, calcium sa",CAS,43035-18-3,938
75,Benzophenonetetracarboxylic Acid Dianhydride,CAS,2421-28-5,259
76,"Beryllium, metal",CAS,7440-41-7,221
77,Bis(3-ethyl-5-methyl-4-maleimidophenyl)methane,CAS,105391-33-1,156
78,Bismuth nitrate,CAS,10361-44-1,302
79,Bismuth trioxide,CAS,1304-76-3,314
80,"Bismuth, metal",CAS,7440-69-9,1456
81,Bisphenol A,CAS,80-05-7,112
82,Bisphenol A diglycidyl ether,CAS,1675-54-3,628
83,"Bisphenol A, formaldehyde, epichlorohydrin polymer",CAS,28906-96-9,26
84,Bisphenol A-epichlorohydrin acrylate,CAS,55818-57-0,2
85,Boron,CAS,7440-42-8,2
86,Boron oxide,CAS,1303-86-2,237
87,Brominated Epoxy,CAS,68928-70-1,6
88,Bromine,CAS,7726-95-6,11
89,"Bromophenol, formaldehyde, epichlorohydrin polymer",CAS,68541-56-0,129
90,C.I. Pigment Black 27,CAS,68186-97-0,5
91,C.I. Pigment Blue 28,CAS,1345-16-0,20
92,"Cadmium, metal",CAS,7440-43-9,3513
93,Calcium,CAS,7440-70-2,210
94,Calcium monoxide,CAS,1305-78-8,382
95,Calcium-carbonate,CAS,471-34-1,68
96,Carbon,CAS,7440-44-0,294
97,Carbon Black,CAS,1333-86-4,8517
98,Ceramic materials and wares,CAS,66402-68-4,33
99,Chromium(VI),CAS,18540-29-9,18
100,"Chromium, metal",CAS,7440-47-3,639
101,Cobalt oxide,CAS,1307-96-6,1
102,"Cobalt, metal",CAS,7440-48-4,468
103,"Copolymer of ethylacrylate, buthylacrylate, acrylnitrile, glycidylmethacrylate",CAS,58152-79-7,20
104,Copper Phthalocyanine Green,CAS,1328-53-6,5
105,Copper phthalocyanine,CAS,147-14-8,1063
106,"Copper, metal",CAS,7440-50-8,23221
107,Cristobalite,CAS,14464-46-1,18
108,Crosslinked acrylate polymer,CAS,25767-43-5,7
109,Cumyl hydroperoxide,CAS,80-15-9,20
110,Cupric oxide,CAS,1317-38-0,1140
111,Cuprous oxide,CAS,1317-39-1,192
112,Cycloaliphatic Epoxy Resin,CAS,244772-00-7,8
113,"Cyclohexane, 1,4-bis((ethenyloxy)methyl)-",CAS,17351-75-6,11
114,Cyclohexanone,CAS,108-94-1,95
115,Di(propylene glycol) methyl ether acetate,CAS,88917-22-0,3
116,Diaminopolypropylene glycol,CAS,9046-10-0,11
117,Dibutyltin dilaurate,CAS,77-58-7,62
118,Dichromium trioxide,CAS,1308-38-9,87
119,Dicyclopentenyloxyethyl acrylate,CAS,65983-31-5,569
120,Diiron-trioxide,CAS,1309-37-1,20
121,Dilauroyl peroxide,CAS,105-74-8,2
122,Dimethyl Cyclosiloxanes,CAS,70900-21-9,153
123,Dimethyl Siloxane,CAS,69430-24-6,73
124,Dimethyl silicone polymer with silica,CAS,67762-90-7,1278
125,"Dimethyl,methyl hydrogen siloxane",CAS,68037-59-2,668
126,Dimethylvinylated and trimethylated silica,CAS,68988-89-6,596
127,Diphenyl cresyl phosphate,CAS,26444-49-5,13
128,Divinylbenzene,CAS,9003-69-4,4
129,"Dodecanedioic acid, polymer with 1,6-hexanediamine",CAS,26098-55-5,10
130,Elastomer Modified Diglycidyl Ether,CAS,68909-14-8,74
131,"Epichlorohydrin, o-cresol, formaldehyde polymer",CAS,29690-82-2,1449
132,Epikote 862,CAS,28064-14-4,480
133,"Epoxy resin, EPON Resin 8091",CAS,25928-94-3,532
134,Ethyl cellulose,CAS,9004-57-3,95
135,Ethyl lactate,CAS,97-64-3,2
136,Ethylene dimethacrylate,CAS,97-90-5,25
137,"Fatty acids, C18-unsatd., dimers, polymers with epichlorohydrin",CAS,68475-94-5,11
138,Fibrous-glass-wool,CAS,65997-17-3,3351
139,Fluorosilicone monomer (fluorosilicone rubber),CAS,2374-14-3,58
140,"Formaldehyde, polymer with 2-methylphenol, glycidyl ether",CAS,64425-89-4,92
141,"Formaldehyde, polymer with 4,4'-(1-methylethylidene)bis[phenol]",CAS,25085-75-0,37
142,"Frits, chemicals",CAS,65997-18-4,9
143,Gallium arsenide,CAS,1303-00-0,52
144,Germanium,CAS,7440-56-4,74
145,Glyceryl monostearate,CAS,31566-31-1,4
146,"Gold, metal",CAS,7440-57-5,9398
147,Indium trihydroxide,CAS,20661-21-6,47
148,"Indium, metal",CAS,7440-74-6,355
149,"Iron, metal",CAS,7439-89-6,8986
150,Isobornyl acrylate,CAS,5888-33-5,2
151,Isobornyl methacrylate,CAS,7534-94-3,163
152,Lead monooxide,CAS,1317-36-8,32
153,Lead titanium oxide (PbTiO3),CAS,12060-00-3,249
154,"Lead, metallic lead and lead alloys",CAS,7439-92-1,18031
155,Magnesium Aluminum Hydroxide Carbonate,CAS,11097-59-9,225
156,Magnesium dihydroxide,CAS,1309-42-8,687
157,"Magnesium, metal",CAS,7439-95-4,2857
158,Magnesium-oxide,CAS,1309-48-4,275
159,Manganese carbonate,CAS,598-62-9,21
160,Manganese dioxide,CAS,1313-13-9,36
161,Manganese oxide,CAS,1344-43-0,45
162,Manganese tetraoxide,CAS,1317-35-7,23
163,"Manganese, metal",CAS,7439-96-5,1775
164,Mercury,CAS,7439-97-6,43
165,"Methacrylic acid, polymer with 2,2-bis(p-(2,3-epoxypropoxy)phenyl)propane",CAS,26875-67-2,55
166,Methyl acrylate,CAS,96-33-3,4
167,Methylhexahydrophthalic anhydride,CAS,25550-51-0,92
168,"Molybdenum, metal",CAS,7439-98-7,273
169,Morpholin,CAS,110-91-8,13
170,"N,N'-Bismaleimido-4,4'-diphenylmethane",CAS,35325-39-4,196
171,Naphthalene,CAS,91-20-3,28
172,Neopentyl glycol diglycidyl ether,CAS,17557-23-2,74
173,Nickel bis(sulphamidate),CAS,13770-89-3,3
174,Nickel oxide,CAS,1313-99-1,20
175,"Nickel, metal",CAS,7440-02-0,8782
176,"Octadecanamide, N,N'-1,2-ethanediylbis-",CAS,110-30-5,4
177,Other Aromatic carbonyl compounds,CAS,,387
178,Other Aromatic hydrocarbon compounds,CAS,,43
179,Other Bismaleimides,CAS,,123
180,Other Epoxy resins,CAS,,3037
181,Other Non-halogenated Epoxy resins,CAS,,1704
182,Other Organic Peroxides,CAS,,569
183,Other acrylates,CAS,,156
184,Other acrylic resins,CAS,,1281
185,Other acrylic/epoxy resin mixture,CAS,,480
186,Other aliphatic amine compounds,CAS,,3
187,Other aliphatic amines,CAS,,19
188,Other aluminum compounds,CAS,,311
189,Other antimony compounds,CAS,,4
190,Other aromatic amines and their salts,CAS,,253
191,Other azo-dyes (other than those that can release carcinogenic amines),CAS,,1
192,Other barium compounds,CAS,,29
193,Other bismuth compounds,CAS,,6
194,Other brominated epoxy resins,CAS,,3
195,Other brominated flame retardants,CAS,,30
196,Other cadmium compounds,CAS,,2
197,Other copper compounds,CAS,,20
198,"Other glass compounds (without lead, chromium, cadmium or mercury)",CAS,,27
199,Other glycidyl ether compounds,CAS,,24
200,Other guanidine compounds,CAS,,91
201,Other halogenated organic compounds,CAS,,3
202,Other imidazole compounds,CAS,,13
203,Other inorganic compounds,CAS,,497
204,Other inorganic cyanide compounds,CAS,,16
205,Other inorganic phosphorous compounds,CAS,,15
206,Other iron compounds,CAS,,39
207,Other miscellaneous substances (less than 10%).,CAS,,21564
208,Other morpholine compounds,CAS,,4
209,Other nickel compounds,CAS,,20
210,Other non-halogenated polymers,CAS,,48
211,Other organic Silicon Compounds,CAS,,908
212,Other organic compounds.,CAS,,687
213,Other organic phosphorous compounds,CAS,,2860
214,Other organosilane compounds,CAS,,30
215,Other phenolic resins,CAS,,1957
216,Other platinum compounds,CAS,,107
217,Other polymers,CAS,,259
218,Other silica compounds,CAS,,329
219,Other siloxanes and silicones,CAS,,91
220,Other titanium compounds,CAS,,5
221,Other zinc compounds,CAS,,5
222,"Oxetane, 2,2,3,3-tetrafluoro-homopolymer, fluorinated",CAS,113114-19-5,71
223,"Oxirane, 2,2,2,2-[1,2-ethanediylidenetetrakis(4,1phenyleneoxymethylene)]tetrakis",CAS,7328-97-4,43
224,"Palladium, metal",CAS,7440-05-3,6072
225,Pentaethylenehexamine,CAS,4067-16-7,13
226,Phenol p-xylylene dimethyl ether copolymer,CAS,26834-02-6,3346
227,"Phenol polymer with 4, 4'- bis (methoxymethyl)- 1, 1'-bisphenyl",CAS,205830-20-2,193
228,"Phenol polymer with ar, ar'-bis(methoxymethyl)-1,1'-biphenyl, glycidyl ethers",CAS,223769-10-6,21
229,"Phenol, 4,4'-(1-methylethylidene)bis-, polymer with (chloromethyl)oxirane",CAS,25068-38-6,895
230,"Phenol, polymer with formaldehyde",CAS,9003-35-4,1164
231,"Phenolic Polymer Resin, Epikote 155",CAS,9003-36-5,5154
232,Phenolic Resin,CAS,125133-38-2,2
233,"Phenolic resin, Formaldehyde polymer with 1,1'-biphenyl and phenol",CAS,628290-34-6,31
234,"Phosphoric acid, chromium(3+) salt (3:2)",CAS,59178-46-0,9
235,"Phosphorus, elemental (not containing red allotrope)",CAS,7723-14-0,6289
236,Phthalocyanine Blue,CAS,57455-37-5,17
237,"Plastic: EP - Epoxide, Epoxy",CAS,,4071
238,Plastic: MMA-Acrylic Copolymer,CAS,,2
239,Plastic: PAI - Polyamide Imide,CAS,,2
240,Plastic: PAK,CAS,,291
241,Plastic: PBR - Polybutadiene Rubber,CAS,,776
242,Plastic: PI - Polyimide,CAS,,356
243,Plastic: PSU - Polysulfone,CAS,,1
244,Plastic: PTFE - Polytetrafluoroethylene,CAS,,11
245,Plastic: SI - Silicone Rubber,CAS,,68
246,Plastic: TEE - Thermo Elastomeric,CAS,,6
247,"Platinum, 1,3-diethenyl-1,1,3,3-tetramethyldisiloxane complexes",CAS,68478-92-2,2
248,"Poly(acrylonitrile-co-butadiene-co-acrylic acid), dicarboxy terminated",CAS,68891-50-9,569
249,Poly(ethylene glycol-ran-propylene glycol) monobutyl ether,CAS,9038-95-3,30
250,"Poly(p-phenylene-2,6-benzobisoxazole",CAS,,6
251,"Poly[(1,1',3,3'-tetrahydro-1,1',3,3'-tetraoxo[5,5'-bi-2H-isoindole]-2,2'-diyl)-1,4-phenylene]",CAS,32197-39-0,33
252,Poly[(phenyl glycidyl ether)-co-dicyclopentadiene],CAS,119345-05-0,146
253,"Poly[oxy[trifluoro(trifluoromethyl)-1,2-ethanediyl]],a-(1,1,2,2,2-pentafluoroethyl)-w-[tetrafluoro(trifluoromethyl)ethoxy]",CAS,60164-51-4,26
254,Polyamide 6,CAS,63428-83-1,13
255,Polybutadiene adducted with maleic anhydride,CAS,25655-35-0,106
256,Polybutylene terephthalate (PBT),CAS,30965-26-5,41
257,Polydimethyl silicones and siloxanes,CAS,63148-62-9,7
258,Polyethylene terephthalate,CAS,25038-59-9,34
259,Polyimide Resin,CAS,39355-34-5,17
260,Polymethylene polyphenyl isocyanate (PAPI),CAS,9016-87-9,60
261,Polyphenylene Sulfide (PPS),CAS,26125-40-6,275
262,Polytetrafluoroethylene,CAS,9002-84-0,107
263,Potassium silver cyanide,CAS,506-61-6,9
264,Proprietary Material - Other anhydrides,CAS,,3
265,Proprietary Material - Other inorganic compounds,CAS,,110
266,"Proprietary Material-Ceramic compounds (without lead, chromium, cadmium or mercury)",CAS,,6
267,Proprietary Material-Di-ester resin,CAS,,38
268,Proprietary Material-Functionalized Ester,CAS,,38
269,Proprietary Material-Methoxysilane,CAS,,19
270,Proprietary Material-Other Aromatic carbonyl compounds,CAS,,71
271,Proprietary Material-Other Bismaleimides,CAS,,139
272,Proprietary Material-Other Epoxy resins,CAS,,5462
273,Proprietary Material-Other Ethylene Glycol Monomethyl or Monoethyl Ethers or their Acetates,CAS,,10
274,Proprietary Material-Other Methacrylate compounds,CAS,,916
275,Proprietary Material-Other Non-halogenated Epoxy resins,CAS,,204
276,Proprietary Material-Other acrylates,CAS,,1086
277,Proprietary Material-Other acrylic resins,CAS,,35
278,Proprietary Material-Other acrylic/epoxy resin mixture,CAS,,363
279,Proprietary Material-Other acrylonitrile compounds,CAS,,114
280,Proprietary Material-Other aliphatic amine compounds,CAS,,37
281,Proprietary Material-Other aliphatic amines,CAS,,148
282,Proprietary Material-Other aluminum compounds,CAS,,499
283,Proprietary Material-Other antimony compounds,CAS,,1
284,Proprietary Material-Other aromatic amines,CAS,,89
285,Proprietary Material-Other azo dyes,CAS,,24
286,Proprietary Material-Other barium compounds,CAS,,17
287,Proprietary Material-Other bismuth compounds,CAS,,21
288,Proprietary Material-Other brominated organic hydrocarbons,CAS,,48
289,"Proprietary Material-Other glass compounds (without lead, chromium, cadmium or mercury)",CAS,,138
290,Proprietary Material-Other imidazole compounds,CAS,,24
291,Proprietary Material-Other inorganic phosphorous compounds,CAS,,103
292,Proprietary Material-Other inorganic silicon compounds,CAS,,10
293,Proprietary Material-Other isocyanate compounds,CAS,,49
294,Proprietary Material-Other magnesium compounds,CAS,,6
295,Proprietary Material-Other miscellaneous substances.,CAS,,9065
296,Proprietary Material-Other morpholine compounds,CAS,,4
297,Proprietary Material-Other non-halogenated polymers,CAS,,3
298,Proprietary Material-Other organic compounds.,CAS,,158
299,Proprietary Material-Other organic phosphorous compounds,CAS,,79
300,Proprietary Material-Other organic silicon compounds,CAS,,169
301,Proprietary Material-Other phenolic resins,CAS,,3264
302,Proprietary Material-Other polymers,CAS,,1053
303,Proprietary Material-Other silica compounds,CAS,,24
304,Proprietary Material-Other siloxanes and silicones,CAS,,601
305,Proprietary Material-Other titanium compounds,CAS,,8
306,Proprietary Material-Other zinc compounds,CAS,,6
307,Proprietary Material-Urethane Polymers,CAS,,6
308,Quartz,CAS,14808-60-7,2658
309,Quinacridone pigment,CAS,1047-16-1,253
310,Ruthenium oxide,CAS,12036-10-1,14
311,"Silanamine, 1,1,1-trimethyl-N-(trimethylsilyl)-, reaction products with ammonia, octamethylcyclotetrasiloxane and silica",CAS,68937-51-9,238
312,Silica amorphous,CAS,61790-53-2,59
313,"Silica, amorphous synthetic",CAS,112926-00-8,203
314,"Silica, crystalline - tridymite",CAS,15468-32-3,76
315,"Silica, vitreous",CAS,60676-86-0,10627
316,Silicic acid sodium salt hydrolysis products with chlorotrimethylsilane and dichloroethenylmethylsilane,CAS,68584-83-8,80
317,Silicon,CAS,7440-21-3,4515
318,Silicon dioxide,CAS,7631-86-9,6188
319,"Silicon dioxide, syntetic",CAS,112945-52-5,457
320,Silicon monoxide,CAS,10097-28-6,33
321,Silicon nitride,CAS,12033-89-5,17
322,"Silicon, doped",CAS,,10064
323,Silicone gum,CAS,67762-94-1,4
324,Silicone modified epoxy resin,CAS,218163-11-2,617
325,"Siloxanes and Silicones, Me 3,3,3-trifluoropropyl, hydroxy-terminated",CAS,68607-77-2,214
326,"Siloxanes and Silicones, di-Me, Me vinyl, vinyl group-terminated",CAS,68083-18-1,238
327,"Siloxanes and Silicones, di-Me, mono(vinyl group)-terminated",CAS,68952-00-1,8
328,"Siloxanes and silicones, di-Me, vinyl group-terminated",CAS,68083-19-2,1214
329,Silver (I) oxide,CAS,20667-12-3,17
330,"Silver, metal",CAS,7440-22-4,21078
331,Silylated silica,CAS,68909-20-6,80
332,Sodium,CAS,7440-23-5,4
333,Strontium Oxide,CAS,1314-11-0,74
334,Substituted phthalic anhydride,CAS,34090-76-1,9
335,Sulfur,CAS,7704-34-9,571
336,Talc,CAS,14807-96-6,1297
337,Tallow bis(2-hydroxyethyl)amine,CAS,61791-44-4,3
338,Tantalum (V) oxide,CAS,1314-61-0,3
339,Tellurium dioxide,CAS,7446-07-3,17
340,Tetra (trimethylsiloxy) silane,CAS,3555-47-3,28
341,Tetraethylene glycol dimethacrylate,CAS,109-17-1,2
342,Tetramethylbiphenyl diglycidyl ether,CAS,85954-11-6,3767
343,Tetraphenylphosphonium tetraphenylborate,CAS,15525-15-2,203
344,Tin oxide (SnO2),CAS,18282-10-5,20
345,Tin zinc oxide (SnZnO3),CAS,12036-37-2,5
346,"Tin, metal",CAS,7440-31-5,17743
347,Titanium (III) oxide (Ti2O3),CAS,1344-54-3,17
348,"Titanium (III, IV) oxide (Ti3O5)",CAS,12065-65-5,93
349,Titanium (IV) Oxide,CAS,13463-67-7,316
350,Titanium dioxide,CAS,1317-70-0,61
351,"Titanium, metal",CAS,7440-32-6,403
352,Triazine,CAS,25722-66-1,181
353,Trimethylolpropane triacrylate,CAS,15625-89-5,145
354,Trimethylolpropane trimethacrylate,CAS,3290-92-4,11
355,Triphenyl phosphine,CAS,603-35-0,176
356,Tris[2-​(acryloyloxy)​ethyl] isocyanurate,CAS,40220-08-4,2
357,"Tungsten, metal",CAS,7440-33-7,165
358,Vanadium pentoxide,CAS,1314-62-1,17
359,"Vanadium, metal",CAS,7440-62-2,2
360,"Vinyl terminated trifluoroproplymethylsiloxane, dimethylsiloxane copolymer",CAS,68951-98-4,30
361,Ytterbium oxide,CAS,1314-37-0,4
362,Yttrium oxide,CAS,1314-36-9,4
363,Zinc Hydroxide,CAS,20427-58-1,389
364,Zinc oxide,CAS,1314-13-2,683
365,"Zinc, metal",CAS,7440-66-6,7550
366,Zirconium oxide,CAS,1314-23-4,135
367,"Zirconium, metal",CAS,7440-67-7,191
368,"[3-(2,3-epoxypropoxy)propyl]trimethoxysilane",CAS,2530-83-8,335
