{
    "-3db Bandwidth": "Numerical with Metric Units",
    "Access Time": "Numerical with Metric Units",
    "Accuracy": "Numerical with Metric Units",
    "Actuator Diameter": "Numerical with Metric Units",
    "Actuator Length": "Numerical with Metric Units",
    "Actuator Material": "List of Categories",
    "Address Bus Width": "Numerical with Metric Units",
    "Ambient Temperature Range High": "Numerical with Metric Units",
    "Approvals": "List of Categories",
    "Assembly Length": "Numerical with Metric Units",
    "Attenuation Value": "Numerical with Metric Units",
    "Axis": "List of Categories",
    "Bandwidth": "Numerical with Metric Units",
    "Battery Pack Voltage": "Numerical with Metric Units",
    "Baud Rate": "Numerical with Metric Units",
    "Board Thickness": "Numerical with Metric Units",
    "Body Material": "List of Categories",
    "Body Plating": "List of Categories",
    "Breakdown Voltage": "Numerical with Metric Units",
    "Breaker Type": "Categorical",
    "Bundle Diameter": "Numerical with Metric Units",
    "Cable Length": "Numerical with Metric Units",
    "Cable Pitch": "Numerical with Metric Units",
    "Capacitance": "Numerical with Metric Units",
    "Card Thickness": "Numerical with Metric Units",
    "Case Code (Imperial)": "Categorical",
    "Case Code (Metric)": "Categorical",
    "Case/Package": "Categorical",
    "Channel Type": "Categorical",
    "Circuit Application": "Categorical",
    "Clamping Voltage": "Numerical with Metric Units",
    "Coil Current": "Numerical with Metric Units",
    "Coil Power": "Numerical with Metric Units",
    "Coil Resistance": "Numerical with Metric Units",
    "Coil Type": "Categorical",
    "Coil Voltage (AC)": "Numerical with Metric Units",
    "Coil Voltage (DC)": "Numerical with Metric Units",
    "Collector Base Voltage (VCBO)": "Numerical with Metric Units",
    "Collector Emitter Breakdown Voltage": "Numerical with Metric Units",
    "Collector Emitter Voltage (VCEO)": "Numerical with Metric Units",
    "Color": "List of Categories",
    "Common Mode Rejection Ratio": "Numerical with Metric Units",
    "Composition": "List of Categories",
    "Conductor Diameter": "Numerical with Metric Units",
    "Conductor Material": "List of Categories",
    "Connector Pitch": "Numerical with Metric Units",
    "Connector System": "Categorical",
    "Connector Type": "List of Categories",
    "Connector Type A": "List of Categories",
    "Connector Type B": "List of Categories",
    "Connectors Color": "Categorical",
    "Contact Current Rating": "Numerical with Metric Units",
    "Contact Finish Thickness - Mating": "Numerical with Metric Units",
    "Contact Gender": "List of Categories",
    "Contact Location": "Categorical",
    "Contact Material": "List of Categories",
    "Contact Mating Length": "Numerical with Metric Units",
    "Contact Plating": "List of Categories",
    "Contact Protection": "Categorical",
    "Contact Resistance": "Numerical with Metric Units",
    "Contact Retention": "Categorical",
    "Contact Shape": "Categorical",
    "Contact Style": "Categorical",
    "Contact Voltage Rating (AC)": "Numerical with Metric Units",
    "Contact Voltage Rating (DC)": "Numerical with Metric Units",
    "Continuous Collector Current": "Numerical with Metric Units",
    "Continuous Drain Current (ID)": "Numerical with Metric Units",
    "Core Architecture": "Categorical",
    "Core Material": "Categorical",
    "Country of Origin": null,
    "Current": "Numerical with Metric Units",
    "Current - Output 1": "Numerical with Metric Units",
    "Current - Output 2": "Numerical with Metric Units",
    "Current - Output 3": "Numerical with Metric Units",
    "Current - Receiving": "Numerical with Metric Units",
    "Current - Transmitting": "Numerical with Metric Units",
    "Current Rating": "Numerical with Metric Units",
    "DC Current": "Numerical with Metric Units",
    "DC Resistance (DCR)": "Numerical with Metric Units",
    "Data Bus Width": "Numerical with Metric Units",
    "Data Rate": "Numerical with Metric Units",
    "Density": "Numerical with Metric Units",
    "Depth": "Numerical with Metric Units",
    "Diameter": "Numerical with Metric Units",
    "Dielectric Material": "Categorical",
    "Differential Pairs per Column": "Numerical",
    "Differential Signaling": "Categorical",
    "Dimming": "List of Categories",
    "Diode Type": "Categorical",
    "Direction": "Categorical",
    "Display Type": "Categorical",
    "Drain to Source Breakdown Voltage": "Numerical with Metric Units",
    "Drain to Source Resistance": "Numerical with Metric Units",
    "Drain to Source Voltage (Vdss)": "Numerical with Metric Units",
    "Dropout Voltage": "Numerical with Metric Units",
    "Dual Supply Voltage": "Numerical with Metric Units",
    "Durability Rating": "Numerical with Metric Units",
    "ELV": "Categorical",
    "Efficiency": "Numerical with Metric Units",
    "Electrical Life": "Numerical with Metric Units",
    "Element Configuration": "Categorical",
    "Emitter Base Voltage (VEBO)": "Numerical with Metric Units",
    "Evaluation Kit": "Categorical",
    "Fall Time": "Numerical with Metric Units",
    "Fastening Type": "List of Categories",
    "Fault Protection": "List of Categories",
    "Features": "Categorical",
    "Feed Type": "Categorical",
    "Flammability Rating": "Categorical",
    "Flange Diameter": "Numerical with Metric Units",
    "Forward Current": "Numerical with Metric Units",
    "Forward Voltage": "Numerical with Metric Units",
    "Frequency": "Numerical with Metric Units",
    "Fuse": "Categorical",
    "Gain": "Numerical with Metric Units",
    "Gain Bandwidth Product": "Numerical with Metric Units",
    "Gasket": "Categorical",
    "Gate to Source Voltage (Vgs)": "Numerical with Metric Units",
    "Gender": "Categorical",
    "Gender Type A": "Categorical",
    "Gender Type B": "Categorical",
    "Glow Wire Compliant": null,
    "Government Qualified": "Categorical",
    "Guide Hardware": "Categorical",
    "Halogen Free": "Categorical",
    "Heavy Duty": "Categorical",
    "Height": "Numerical with Metric Units",
    "Height Off Base": "Numerical with Metric Units",
    "High Level Output Current": "Numerical with Metric Units",
    "High Speed Serial Data Connector": "Categorical",
    "High Temperature Compatible": "Categorical",
    "High Temperature Housing": "Categorical",
    "Hold Current": "Numerical with Metric Units",
    "Hole Diameter": "Numerical with Metric Units",
    "Housing Color": "List of Categories",
    "Housing Material": "Categorical",
    "Hybrid Connector": "Categorical",
    "Hysteresis": "Numerical with Metric Units",
    "Illumination Color": "Categorical",
    "Illumination Type": "List of Categories",
    "Impedance": "Numerical with Metric Units",
    "Independent Circuits": "Numerical",
    "Inductance": "Numerical with Metric Units",
    "Inductance Tolerance": "Numerical with Metric Units",
    "Input": "Categorical",
    "Input Bias Current": "Numerical with Metric Units",
    "Input Capacitance": "Numerical with Metric Units",
    "Input Current": "Numerical with Metric Units",
    "Input Offset Voltage (Vos)": "Numerical with Metric Units",
    "Insertion Loss (dB)": "Numerical with Metric Units",
    "Inside Diameter": "Numerical with Metric Units",
    "Insulated Wire Support": "Categorical",
    "Insulation": "Categorical",
    "Insulation Diameter": "Numerical with Metric Units",
    "Insulation Material": "List of Categories",
    "Insulation Resistance": "Numerical with Metric Units",
    "Insulation Thickness": "Numerical with Metric Units",
    "Interface": "List of Categories",
    "Keyed": "Categorical",
    "Lead Diameter": "Numerical with Metric Units",
    "Lead Free": "List of Categories",
    "Lead Length": "Numerical with Metric Units",
    "Lead Pitch": "Numerical with Metric Units",
    "Lead/Base Style": "Categorical",
    "Length": "Numerical with Metric Units",
    "Lens Color": "Categorical",
    "Lens Style": "List of Categories",
    "Life (Cycles)": "Numerical with Metric Units",
    "Lifecycle Status": "Categorical",
    "Linearity": "Numerical with Metric Units",
    "Load Capacitance": "Numerical with Metric Units",
    "Logic Function": "List of Categories",
    "Low Level Output Current": "Numerical with Metric Units",
    "Luminous Intensity": "Numerical with Metric Units",
    "Make First / Break Last": "Categorical",
    "Manufacturer Lifecycle Status": "Categorical",
    "Manufacturer Package Identifier": "Categorical",
    "Mated Stacking Heights": "Numerical with Metric Units",
    "Material": "List of Categories",
    "Material Thickness": "Numerical with Metric Units",
    "Mating Alignment": "Categorical",
    "Mating Connector Lock": "Categorical",
    "Mating Post Length": "Numerical with Metric Units",
    "Mating Retention": "Categorical",
    "Mating Tab Width": "Numerical with Metric Units",
    "Max Breakdown Voltage": "Numerical with Metric Units",
    "Max Charge Current": "Numerical with Metric Units",
    "Max Collector Current": "Numerical with Metric Units",
    "Max Current Rating": "Numerical with Metric Units",
    "Max DC Current": "Numerical with Metric Units",
    "Max Dual Supply Voltage": "Numerical with Metric Units",
    "Max Duty Cycle": "Numerical with Metric Units",
    "Max Frequency": "Numerical with Metric Units",
    "Max I/O Voltage": "Numerical with Metric Units",
    "Max Input Current": "Numerical with Metric Units",
    "Max Input Voltage": "Numerical with Metric Units",
    "Max Junction Temperature (Tj)": "Numerical with Metric Units",
    "Max Operating Temperature": "Numerical with Metric Units",
    "Max Output Current": "Numerical with Metric Units",
    "Max Output Power": "Numerical with Metric Units",
    "Max Output Voltage": "Numerical with Metric Units",
    "Max Power Dissipation": "Numerical with Metric Units",
    "Max Pressure": "Numerical with Metric Units",
    "Max RMS Current": "Numerical with Metric Units",
    "Max Supply Current": "Numerical with Metric Units",
    "Max Supply Voltage": "Numerical with Metric Units",
    "Max Supply Voltage (AC)": "Numerical with Metric Units",
    "Max Supply Voltage (DC)": "Numerical with Metric Units",
    "Max Voltage Rating (AC)": "Numerical with Metric Units",
    "Max Voltage Rating (DC)": "Numerical with Metric Units",
    "Mechanical Life": "Numerical with Metric Units",
    "Memory Size": "Numerical with Metric Units",
    "Memory Type": "List of Categories",
    "Military Standard": "Categorical",
    "Min Breakdown Voltage": "Numerical with Metric Units",
    "Min Dual Supply Voltage": "Numerical with Metric Units",
    "Min Input Voltage": "Numerical with Metric Units",
    "Min Operating Temperature": "Numerical with Metric Units",
    "Min Output Voltage": "Numerical with Metric Units",
    "Min Supply Voltage": "Numerical with Metric Units",
    "Min Supply Voltage (DC)": "Numerical with Metric Units",
    "Mode": "Categorical",
    "Mount": "List of Categories",
    "Noise Figure": "Numerical with Metric Units",
    "Nominal Input Voltage": "Numerical with Metric Units",
    "Nominal Supply Current": "Numerical with Metric Units",
    "Nominal Supply Voltage (DC)": "Numerical with Metric Units",
    "Number of A/D Converters": "Numerical",
    "Number of ADC Channels": "Numerical",
    "Number of Amplifiers": "Numerical",
    "Number of Analog Inputs": "Numerical",
    "Number of Analog Outputs": "Numerical",
    "Number of Bits": "Numerical",
    "Number of Bits per Element": "Numerical",
    "Number of Cells": "Numerical",
    "Number of Channels": "Numerical",
    "Number of Circuits": "Numerical",
    "Number of Columns": "Numerical",
    "Number of Conductors": "Numerical",
    "Number of Contacts": "Numerical",
    "Number of Cores": "Numerical",
    "Number of Cores per Jack": "Numerical",
    "Number of D/A Converters": "Numerical",
    "Number of DAC Channels": "Numerical",
    "Number of Drivers": "Numerical",
    "Number of Elements": "Numerical",
    "Number of Ethernet Channels": "Numerical",
    "Number of GPIO": "Numerical",
    "Number of Gangs": "Numerical",
    "Number of Ground Positions": "Numerical",
    "Number of Holes": "Numerical",
    "Number of I/Os": "Numerical",
    "Number of I2C Channels": "Numerical",
    "Number of Input Lines": "Numerical",
    "Number of Inputs": "Numerical",
    "Number of Interrupts": "Numerical",
    "Number of LEDs": "Numerical",
    "Number of Levels": "Numerical",
    "Number of Output Lines": "Numerical",
    "Number of Outputs": "Numerical",
    "Number of PWM Channels": "Numerical",
    "Number of Pairs": "Numerical",
    "Number of Pins": "Numerical",
    "Number of Poles": "Numerical",
    "Number of Ports": "Numerical",
    "Number of Positions": "Numerical",
    "Number of Positions Loaded": "Numerical",
    "Number of Positions Per Level": "Numerical",
    "Number of Power Positions": "Numerical",
    "Number of Programmable I/O": "Numerical",
    "Number of Receive Buffers": "Numerical",
    "Number of Receivers": "Numerical",
    "Number of Resistors": "Numerical",
    "Number of Rows": "Numerical",
    "Number of SPI Channels": "Numerical",
    "Number of Segments": "Numerical",
    "Number of Signal Positions": "Numerical",
    "Number of Strands": "Numerical",
    "Number of Terminals": "Numerical",
    "Number of Terminations": "Numerical",
    "Number of Timers/Counters": "Numerical",
    "Number of Transceivers": "Numerical",
    "Number of Transmit Buffers": "Numerical",
    "Number of Transmitters": "Numerical",
    "Number of Turns": "Numerical",
    "Number of UART Channels": "Numerical",
    "Number of USB Channels": "Numerical",
    "Number of Wire Entries": "Numerical",
    "On-State Resistance": "Numerical with Metric Units",
    "Operate Time": "Numerical with Metric Units",
    "Operating Force": "Numerical with Metric Units",
    "Operating Supply Current": "Numerical with Metric Units",
    "Operating Supply Voltage": "Numerical with Metric Units",
    "Orientation": "List of Categories",
    "Oscillator Type": "Categorical",
    "Output Configuration": "Categorical",
    "Output Current": "Numerical with Metric Units",
    "Output Current per Channel": "Numerical with Metric Units",
    "Output Power": "Numerical with Metric Units",
    "Output Type": "List of Categories",
    "Output Voltage": "Numerical with Metric Units",
    "Outside Diameter": "Numerical with Metric Units",
    "P1dB": "Numerical with Metric Units",
    "PCB Mount Alignment": "Categorical",
    "PCB Mount Retention": "Categorical",
    "PCB Mounting Orientation": "Categorical",
    "PCB Thickness": "Numerical with Metric Units",
    "Package Cooled": "Categorical",
    "Package Quantity": "Numerical",
    "Packaging": "Categorical",
    "Panel Thickness": "Numerical with Metric Units",
    "Peripherals": "List of Categories",
    "Pitch": "Numerical with Metric Units",
    "Plating": "List of Categories",
    "Plating Thickness": "Numerical with Metric Units",
    "Polarity": "List of Categories",
    "Polarized": "Categorical",
    "Port Style": "List of Categories",
    "Power Consumption": "Numerical with Metric Units",
    "Power Dissipation": "Numerical with Metric Units",
    "Power Gain": "Numerical with Metric Units",
    "Power Rating": "Numerical with Metric Units",
    "Power Supply Rejection Ratio (PSRR)": "Numerical with Metric Units",
    "Preloaded": "Categorical",
    "Pressure Type": "Categorical",
    "Propagation Delay": "Numerical with Metric Units",
    "Q Factor": "Numerical",
    "Quiescent Current": "Numerical with Metric Units",
    "RAM Size": "Numerical with Metric Units",
    "REACH SVHC": "Categorical",
    "RMS Current (Irms)": "Numerical with Metric Units",
    "Radiation Hardening": "Categorical",
    "Ratings": "List of Categories",
    "Receiver Hysteresis": "Numerical with Metric Units",
    "Relay Type": "Categorical",
    "Release Time": "Numerical with Metric Units",
    "Resistance": "Numerical with Metric Units",
    "Resolution": "Numerical with Metric Units",
    "Response Time": "Numerical with Metric Units",
    "Return Loss": "Numerical with Metric Units",
    "Rise Time": "Numerical with Metric Units",
    "RoHS": "Categorical",
    "Row Spacing": "Numerical with Metric Units",
    "Sampling Rate": "Numerical with Metric Units",
    "Saturation Current": "Numerical with Metric Units",
    "Schedule B": "List of Categories",
    "Sealable": "Categorical",
    "Self Resonant Frequency": "Numerical with Metric Units",
    "Sensing Method": "Categorical",
    "Sensitivity (dBm)": "Numerical with Metric Units",
    "Sensitivity (mV/g)": "Numerical with Metric Units",
    "Sensor Type": "Numerical with Metric Units",
    "Serviceable": "Categorical",
    "Shape": "List of Categories",
    "Shell Finish": "Categorical",
    "Shell Material": "Categorical",
    "Shielding": "Categorical",
    "Shrouded": "Categorical",
    "Shrouded End Dimension": "Numerical with Metric Units",
    "Signal to Noise Ratio (SNR)": "Numerical with Metric Units",
    "Simplex/Duplex": "Categorical",
    "Socket Depth": "Numerical with Metric Units",
    "Speed Grade": "Numerical with Metric Units",
    "Stack Height": "Numerical with Metric Units",
    "Stackable": "Categorical",
    "Strand Size": "Numerical with Metric Units",
    "Stud Diameter": "Numerical with Metric Units",
    "Stud Size": "Categorical",
    "Supply Type": "Categorical",
    "Switch Function": "Categorical",
    "Switch Travel": "Numerical with Metric Units",
    "Switching Capacity": "Numerical with Metric Units",
    "Switching Current": "Numerical with Metric Units",
    "Switching Frequency": "Numerical with Metric Units",
    "Switching Voltage": "Numerical with Metric Units",
    "Synchronous Rectifier": "Categorical",
    "Tab Length": "Numerical with Metric Units",
    "Tab Thickness": "Numerical with Metric Units",
    "Tab Width": "Numerical with Metric Units",
    "Tail Length": "Numerical with Metric Units",
    "Taper": "Categorical",
    "Temperature Coefficient": "Numerical with Metric Units",
    "Terminal Material": "Categorical",
    "Terminal Pitch": "Numerical with Metric Units",
    "Termination": "List of Categories",
    "Termination Post Length": "Numerical with Metric Units",
    "Test Current": "Numerical with Metric Units",
    "Test Frequency": "Numerical with Metric Units",
    "Test Voltage": "Numerical with Metric Units",
    "Thickness": "Numerical with Metric Units",
    "Thread Size": "Categorical",
    "Threshold Voltage": "Numerical with Metric Units",
    "Throw Configuration": "List of Categories",
    "Time to Trip": "Numerical with Metric Units",
    "Tolerance": "Numerical with Metric Units",
    "Tongue Thickness": "Numerical with Metric Units",
    "Topology": "Categorical",
    "Touchscreen": "Categorical",
    "Transition Frequency": "Numerical with Metric Units",
    "Trip Current": "Numerical with Metric Units",
    "Turn-Off Delay Time": "Numerical with Metric Units",
    "Turn-On Delay Time": "Numerical with Metric Units",
    "Turns Ratio": "Categorical",
    "Type": "Categorical",
    "USB Standard": "Categorical",
    "Underplate Material": "Categorical",
    "VDE Tested": "Categorical",
    "Voltage": "Numerical with Metric Units",
    "Voltage - Output 1": "Numerical with Metric Units",
    "Voltage - Output 2": "Numerical with Metric Units",
    "Voltage - Output 3": "Numerical with Metric Units",
    "Voltage Rating": "Numerical with Metric Units",
    "Voltage Rating (AC)": "Numerical with Metric Units",
    "Voltage Rating (DC)": "Numerical with Metric Units",
    "Washable": "Categorical",
    "Watchdog Timer": "Categorical",
    "Weight": "Numerical with Metric Units",
    "Width": "Numerical with Metric Units",
    "Wire Gauge (Max)": "Numerical with Metric Units",
    "Wire Gauge (Min)": "Numerical with Metric Units",
    "Wire/Cable Color": "Categorical",
    "Wire/Cable Diameter": "Numerical with Metric Units",
    "Wire/Cable Gauge": "Numerical with Metric Units",
    "Wire/Cable Type": "Categorical",
    "Working Voltage": "Numerical with Metric Units",
    "hFE Min": "Numerical"
}